{
  "global": {
    "Transbank": {
      "300 Default": {
        "value": "#d5006c",
        "type": "color"
      }
    },
    "Surface": {
      "Interactive": {
        "Tbk": {
          "Active": {
            "value": "#d5006c",
            "type": "color"
          }
        }
      }
    },
    "Border": {
      "Interactive": {
        "Tbk": {
          "Active": {
            "value": "#d5006c",
            "type": "color"
          },
          "Disabled": {
            "value": "#888888",
            "type": "color"
          }
        }
      }
    },
    "Grey": {
      "100": {
        "value": "#f00",
        "type": "color"
      },
      "200": {
        "value": "#888888",
        "type": "color"
      },
      "300": {
        "value": "#37ff42",
        "type": "color"
      }
    },
    "Onepay": {
      "200": {
        "value": "#3AC1EA",
        "type": "color"
      },
      "500": {
        "value": "#005A9F",
        "type": "color"
      },
      "300 default": {
        "value": "#009BDD",
        "type": "color",
        "description": "brand color"
      }
    },
    "Icon": {
      "interactive": {
        "onepay active": {
          "value": "{Onepay.300 default}",
          "type": "color",
          "description": "Usar en iconos de elementos interactivos"
        }
      }
    },
    "spacing-00": {
      "value": "4px",
      "type": "spacing"
    },
    "spacing-01": {
      "value": "8px",
      "type": "spacing"
    },
    "spacing-02": {
      "value": "16px",
      "type": "spacing"
    },
    "spacing-03": {
      "value": "24px",
      "type": "spacing"
    },
    "spacing-04": {
      "value": "32px",
      "type": "spacing"
    },
    "spacing-05": {
      "value": "40px",
      "type": "spacing"
    },
    "spacing-06": {
      "value": "48px",
      "type": "spacing"
    },
    "spacing-07": {
      "value": "56px",
      "type": "spacing"
    },
    "spacing-08": {
      "value": "64px",
      "type": "spacing"
    },
    "spacing-09": {
      "value": "72px",
      "type": "spacing"
    },
    "spacing-10": {
      "value": "80px",
      "type": "spacing"
    },
    "webpay": {
      "300default": {
        "value": "#6B196B",
        "type": "color"
      }
    },
    "action": {
      "webpay": {
        "primary": {
          "default": {
            "value": "{webpay.300default}",
            "type": "color"
          }
        }
      }
    },
    "surface": {
      "interactive": {
        "webpay": {
          "active": {
            "value": "{webpay.300default}",
            "type": "color"
          }
        }
      },
      "brand": {
        "webpay": {
          "value": "{webpay.300default}",
          "type": "color"
        }
      }
    },
    "border": {
      "interactive": {
        "webpay": {
          "value": "{webpay.300default}",
          "type": "color"
        }
      },
      "brand": {
        "webpay": {
          "value": "{webpay.300default}",
          "type": "color"
        }
      }
    },
    "text": {
      "interactive": {
        "webpay": {
          "active": {
            "value": "{webpay.300default}",
            "type": "color"
          }
        }
      }
    },
    "icon": {
      "interactive": {
        "webpay": {
          "active": {
            "value": "{webpay.300default}",
            "type": "color"
          }
        }
      }
    },
    "brand": {
      "webpay": {
        "default": {
          "value": "{webpay.300default}",
          "type": "color"
        }
      }
    },
    "decorative": {
      "webpay": {
        "value": "{webpay.300default}",
        "type": "color"
      }
    },
    "Dark blue": {
      "value": "#0a047a",
      "type": "color"
    },
    "yellow": {
      "value": "#bd9708",
      "type": "color"
    },
    "Color": {
      "nuevo4": {
        "value": "#ff7c00",
        "type": "color"
      }
    },
    "spacing-11": {
      "value": "96px",
      "type": "spacing"
    },
    "spacing-12": {
      "value": "104px",
      "type": "spacing"
    }
  },
  "$themes": []
}